…
#### In 2002, which states were observed at 7 locations?

``` r
brfss_smart2010 %>% 
  group_by(locationabbr) %>% 
  summarize(n_locations = n_distinct(locationdesc))
```

    ## # A tibble: 51 x 2
    ##   locationabbr n_locations
    ##   <chr>              <int>
    ## 1 AK                     2
    ## 2 AL                     4
    ## 3 AR                     3
    ## 4 AZ                     5
    ## 5 CA                    12
    ## # ... with 46 more rows
…
